{
      "nodes": [
              {"index":0, "label": "Bienvenue dans Fludy !", "@type":"loglink:quoi", "x":300, "y":50, "@id":"http://fluidlog.com/node/0", "neighbours":[1] },
              {"index":1, "label": "Vous pouvez ajouter...", "@type":"loglink:quoi", "x":150, "y":150, "@id":"http://fluidlog.com/node/1", "neighbours":[0,2] },
              {"index":2, "label": "Des qui", "@type":"loglink:qui", "x":300, "y":200, "@id":"http://fluidlog.com/node/2", "neighbours":[] },
              {"index":3, "label": "Des quoi", "@type":"loglink:quoi", "x":400, "y":200, "@id":"http://fluidlog.com/node/3", "neighbours":[] },
              {"index":4, "label": "Des pourquoi", "@type":"loglink:pourquoi", "x":500, "y":200, "@id":"http://fluidlog.com/node/4", "neighbours":[] },
              {"index":5, "label": "Des ou", "@type":"loglink:ou", "x":600, "y":200, "@id":"http://fluidlog.com/node/5", "neighbours":[] },
              {"index":6, "label": "Des comment", "@type":"loglink:comment", "x":700, "y":200, "@id":"http://fluidlog.com/node/6", "neighbours":[] },
              {"index":7, "label": "Des quand", "@type":"loglink:quand", "x":800, "y":200, "@id":"http://fluidlog.com/node/7", "neighbours":[] },
              {"index":8, "label": "Des combien", "@type":"loglink:combien", "x":900, "y":200, "@id":"http://fluidlog.com/node/8", "neighbours":[] }
      ],
      "edges": [
              {"index":0, "@id" : "http://fluidlog.com/edge/0", "@type":"loglink:linkedto", "source": 0, "target": 1 },
              {"index":1, "@id" : "http://fluidlog.com/edge/1", "@type":"loglink:linkedto", "source": 1, "target": 2 },
              {"index":2, "@id" : "http://fluidlog.com/edge/2", "@type":"loglink:linkedto", "source": 2, "target": 3 },
              {"index":3, "@id" : "http://fluidlog.com/edge/3", "@type":"loglink:linkedto", "source": 3, "target": 4 },
              {"index":4, "@id" : "http://fluidlog.com/edge/4", "@type":"loglink:linkedto", "source": 4, "target": 5 },
              {"index":5, "@id" : "http://fluidlog.com/edge/5", "@type":"loglink:linkedto", "source": 5, "target": 6 },
              {"index":6, "@id" : "http://fluidlog.com/edge/6", "@type":"loglink:linkedto", "source": 6, "target": 7 },
              {"index":7, "@id" : "http://fluidlog.com/edge/7", "@type":"loglink:linkedto", "source": 7, "target": 8 }
      ]
}
